goal:min
nbVars:3
nbCons:3
function://x1:x2:...:xn
3:2:1
constraints://x1:x2:...:xn:>= ou >= ou =:b
4:1:1:<=:30
2:3:1:<=:60
1:2:3:<=:40
conditions://avec ou sans:<= ou >=:0
avec:>=:0
avec:>=:0
avec:>=:0
