goal:max
nbVars:2
nbCons:3
function://x1:x2:...:xn
11:11
constraints://x1:x2:...:xn:>= ou >= ou =:b
132:1234:<=:12222
11:12:<=:133
134:112:<=:1111
conditions://avec ou sans:<= ou >=:0
avec:>=:0
avec:>=:0
